Inicio 
	lado[3];
	for(int i=0; i<3;i++)
		do
			leer lado[i];
		while(lado[i]<0)
	end-for
	if(lado[0]<lado[1]+ lado[2])
		Escribe "Se puede hacer un triangulo";
	else 
		if(lado[1]<lado[0]+ lado[2])
			Escribe "Se puede hacer un triangulo";
		else
			if(lado20]<lado[1]+ lado[2])
				Escribe "Se puede hacer un triangulo";
			else
				Escribr "No se puede crear un triangulo";
			end- if;
		end-if;
	end-if;
Fin
