boolean funcion esFecha(año,mes,dia)
Inicio
	if (año>0)
		if(mes<13 && mes >0 )
			if (dia > 0 && dia <= getDiasMes(mes) && getDiasMes(mes)!=-1 )
				devuelve verdadero;
			end-if
		end if;
	end if;
	devuelve falso
Fin

int getDiasMes(mes)
Inicio 
	switch(mes):
		case 1: 
			devolver 31;
		case 2:
			devolver 28;
		case 3:
			devolver 
		case 4:
			devolver 30;
		case 5:
			devolver 31;
		case 6:
			devolver 30;
		case 7:
			devolver 31;
		case 8:
			devolver 31;
		case 9:
			devolver 30;
		case 10:
			devolver 31;
		case 11:
			devolver 30;
		case 12:
			retur 31;
		default:
			devolver -1:
	end-switch
Fin